{
  "version": "v4",
  "repo": "borisyankov/DefinitelyTyped",
  "ref": "master",
  "path": "tools/typings",
  "bundle": "tools/typings/tsd.d.ts",
  "installed": {
    "angularjs/angular.d.ts": {
      "commit": "be0b6b394f77a59e192ad7cfec18078706e44db5"
    },
    "cordova/cordova.d.ts": {
      "commit": "0c2ee8583c9a27873d7c40cc79fdcb79b5868150"
    },
    "jquery/jquery.d.ts": {
      "commit": "0c2ee8583c9a27873d7c40cc79fdcb79b5868150"
    },
    "cordova/plugins/Device.d.ts": {
      "commit": "0c2ee8583c9a27873d7c40cc79fdcb79b5868150"
    },
    "cordova/plugins/BatteryStatus.d.ts": {
      "commit": "0c2ee8583c9a27873d7c40cc79fdcb79b5868150"
    },
    "cordova/plugins/DeviceOrientation.d.ts": {
      "commit": "0c2ee8583c9a27873d7c40cc79fdcb79b5868150"
    },
    "cordova/plugins/DeviceMotion.d.ts": {
      "commit": "0c2ee8583c9a27873d7c40cc79fdcb79b5868150"
    },
    "cordova/plugins/Camera.d.ts": {
      "commit": "0c2ee8583c9a27873d7c40cc79fdcb79b5868150"
    },
    "cordova/plugins/Dialogs.d.ts": {
      "commit": "0c2ee8583c9a27873d7c40cc79fdcb79b5868150"
    },
    "cordova/plugins/Contacts.d.ts": {
      "commit": "0c2ee8583c9a27873d7c40cc79fdcb79b5868150"
    },
    "cordova/plugins/FileTransfer.d.ts": {
      "commit": "0c2ee8583c9a27873d7c40cc79fdcb79b5868150"
    },
    "cordova/plugins/FileSystem.d.ts": {
      "commit": "0c2ee8583c9a27873d7c40cc79fdcb79b5868150"
    },
    "cordova/plugins/Media.d.ts": {
      "commit": "0c2ee8583c9a27873d7c40cc79fdcb79b5868150"
    },
    "cordova/plugins/Globalization.d.ts": {
      "commit": "0c2ee8583c9a27873d7c40cc79fdcb79b5868150"
    },
    "cordova/plugins/MediaCapture.d.ts": {
      "commit": "0c2ee8583c9a27873d7c40cc79fdcb79b5868150"
    },
    "cordova/plugins/StatusBar.d.ts": {
      "commit": "0c2ee8583c9a27873d7c40cc79fdcb79b5868150"
    },
    "cordova/plugins/InAppBrowser.d.ts": {
      "commit": "0c2ee8583c9a27873d7c40cc79fdcb79b5868150"
    },
    "cordova/plugins/NetworkInformation.d.ts": {
      "commit": "0c2ee8583c9a27873d7c40cc79fdcb79b5868150"
    },
    "cordova/plugins/Vibration.d.ts": {
      "commit": "0c2ee8583c9a27873d7c40cc79fdcb79b5868150"
    },
    "cordova/plugins/Splashscreen.d.ts": {
      "commit": "0c2ee8583c9a27873d7c40cc79fdcb79b5868150"
    },
    "cordova/plugins/Push.d.ts": {
      "commit": "0c2ee8583c9a27873d7c40cc79fdcb79b5868150"
    },
    "cordova/plugins/WebSQL.d.ts": {
      "commit": "0c2ee8583c9a27873d7c40cc79fdcb79b5868150"
    },
    "angularjs/legacy/angular-scenario-1.2.d.ts": {
      "commit": "be0b6b394f77a59e192ad7cfec18078706e44db5"
    },
    "angularjs/angular-cookies.d.ts": {
      "commit": "be0b6b394f77a59e192ad7cfec18078706e44db5"
    },
    "angularjs/angular-resource.d.ts": {
      "commit": "be0b6b394f77a59e192ad7cfec18078706e44db5"
    },
    "angularjs/angular-mocks.d.ts": {
      "commit": "be0b6b394f77a59e192ad7cfec18078706e44db5"
    },
    "angularjs/angular-sanitize.d.ts": {
      "commit": "be0b6b394f77a59e192ad7cfec18078706e44db5"
    },
    "angularjs/angular-animate.d.ts": {
      "commit": "be0b6b394f77a59e192ad7cfec18078706e44db5"
    },
    "angularjs/angular-route.d.ts": {
      "commit": "be0b6b394f77a59e192ad7cfec18078706e44db5"
    }
  }
}
